First Name, Last Name, Age Group, Gender, Birthday, Parents Name, Address, Home Phone, Work Phone, E-mail, T-size, Quantity, Return, Sessions


Maximilian,Emenheiser,U11,Male,9 13 2002,Karin and Scott,204 Cedar Wynd Dr. Apex,919-363-6477,919-454-6357,karin@emenheiser.com,YL,1,No,Spring
erkj,dkfj,U10,Male,1 1 2004,dkfj,dkjfd dkjf,dkfjd,dkjf,dkjf@gmail.com,YL,0,Yes,Spring
Aakash,Bhardwaj,U11,Male,3 6 2003,Santosh kumar,206 chiselhurst way Cary,9193426611,9199305881,Rashmisantosh.bdj@gmail.com,YM,1,No,Spring
leo,cheng,U11,Male,3 6 2003,fang liu,102 laurel wreath ln Cary,9194607934,,f_liufang@hotmail.com,YL,1,Yes,Spring
Nickolas,Kleu,U11,Male,3 18 2003,Jon and Kim Kleu,205 Preston Arbor Lane Cary,9194692742,,kkleu@nc.rr.com,YL,0,No,Spring
Ariel,Turcios,U11,Male,3 10 2003,Alfonso&Sandra Turcios,2504 torbay ct Rleigh,919 609  4519,919 872 5360,aturcious@nc.rr.com,YL,1,Yes,Spring
Moore,Halfon,U11,Male,6 17 2003,Dalit Halfon,1028 upchurch farml lane Cary,9193034964,9199249203,dalit.halfon@gmail.com,YL,1,Yes,Spring
Davis,Hunter,U11,Male,5 18 2003,Mike and Mandy,7032 Talton Ridge Drive Cary,9196503721,9192579295,mandmhunter@aol.com,YM,1,No,Spring


Shannon,Cawley,U11,Female,5 27 2003,Kathy & TJ Cawley,103 Trellingwood Drive Morrisville,919-539-3687,919-539-9683,kathy.cawley@verizon.com,YM,1,No,Spring
Diya,Desai,U11,Female,3 14 2003,Sunil Desai,509 Elan Hall Road Cary,510-579-5725,,sunild20@gmail.com,YL,0,Yes,Spring
Madelyn,Hummel,U10,Female,4 29 2004,Jim Hummel,125 Glenmore Rd Cary,610-597-9895,,jimphummel@aol.com,YL,1,No,Spring
Giovanna,Atti,U10,Female,3 24 2004,Anthony and Dana Atti,106 Chapelwood Way Cary,919.520.9509,,danaatti@gmail.com,YL,1,No,Spring
Estella,Multari,U11,Female,6 22 2003,Franco and Barb,105 Bannerman Ln Cary,919-244-5656,919-535-4720,barb.multari@gmail.com,YL,1,No,Spring
Aarini,Chauhan,U10,Female,12 13 2003,Alpana Singh,5012 Blue Jack Oak Drive Cary,6234442928,6465759416,alpanas1@yahoo.com,YL,1,No,Spring
Reyna,Patel,U11,Female,6 29 2003,Neela and Sanjay,107 Poplin Ct. Cary,9196503040,,neelasanjay@gmail.com,YL,1,No,Spring
Reyna,Patel,U11,Female,6 29 2003,Neela Patel,107 Poplin Ct. Cary,9196503040,,neelasanjay@gmail.com,YL,0,No,Spring
