First Name, Last Name, Age Group, Gender, Birthday, Parents Name, Address, Home Phone, Work Phone, E-mail, T-size, Quantity, Return, Sessions


Jon,Grabowski,U9 ,Male,3 21 2005,Shannon Grabowski,418 Lakeshore Lane Chapel Hill,9199335104,9195935013,shannongrabowski@yahoo.com,YL,2,No,Winter2
Graham,Woodward,U9 ,Male,5 31 2005,Julia Woodward,5400 Fire Pink Way Raleigh,919.870.5465,919.345.0480,julia.woodward@duke.edu,YL,0,Yes,Spring
Benjamin,Afshari,U8 ,Male,11 22 2005,Hamid and Leila,213 Kurtner Ct. MORRISVILLE,919-321-8686,919-720-1790,db_afshari@yahoo.com,YM,0,No,Spring
Joseph,Herr,U8 ,Male,9 24 2005,David,600 Laconia Woods Pl Cary,919-349-3451,919-254-7981,dherr@nc.rr.com,YL,1,No,Spring
Siddhant,Borkar,U9 ,Male,12 30 2004,Yogesh Borkar,1008 Katie Ln Cary,9193871516,9199946511,borkary@yahoo.com,YL,1,No,Spring
Logan,Benna,U8 ,Male,1 13 2006,Matt & Lisa,5328 Bent Leaf Drive Raleigh,9199771711,2155898715,bennafam@gmail.com,YL,1,No,Spring
Carson,Pollock,U7 ,Male,2 24 2007,Kathryn Lewellen,524 Buxton Grant Dr Cary,919 270-4545,,lewellenk@yahoo.com,YM,1,No,Spring
Ryan,Cawley,U7 ,Male,1 13 2006,Kathy & TJ Cawley,103 Trellingwood Drive Morrisville,919-539-3687,919-539-9683,kathy.cawley@verizon.com,YM,1,Yes,Spring
Paxton,de Tenley,U7 ,Male,3 16 2007,Dave & Becky,8018 Wade Green Place Cary,9194500069,9194500069,detenley@hotmail.com,YL,1,No,Spring
Bennett,de Tenley,U8 ,Male,11 1 2005,Dave & Becky,8018 Wade Green Place Cary,9194500069,9194500069,detenley@hotmail.com,YL,1,No,Spring
Aariv,Bhardwaj,U7 ,Male,12 17 2007,Santosh,206 chiselhurst way Cary,9193426611,,Rashmisantosh.bdj@gmail.com,YM,1,No,Spring
Noah,Fitzsimons,U7 ,Male,3 24 2007,Josh Fitzsimons,4310 Russling leaf lane Raleigh,919-787-0134,919-604-6398,joshfitzsimons@yahoo.com,YL,1,No,Spring
Eric,Ye,U8 ,Male,1 27 2006,qing ye,2112 addenbrock drive morrisville,9192083852,9192083852,softmud@gmail.com,YL,0,No,Spring
Bennett,Lee,U8 ,Male,12 21 2005,Joe Lee,815 Water Hickory Drive Cary,919.800.1591,919.881.7001,joe.lee2@wellsfargo.com,YM,1,No,Spring
Carson,Grizer,U9 ,Male,11 1 2004,Jeff and Kerri Grizer,310 Marble Glow Ct Cary,919-342-7015,,Kgrizer@hotmail.com,YL,1,Yes,Spring
Christopher,Kelly,U8 ,Male,12 26 2005,Hongyu Wang,614 Ives Ct Chapel Hill,9194108107,,wanghongyu@ymail.com,YM,1,No,Spring
Kamran,Hau,U9 ,Male,11 23 2004,Emiko Takahara-Hau,1538 Sterling Green Dr. Morrisville,551-580-9622,,mountfuji2@yahoo.com,YL,1,No,Spring
Tyler,selkirk,U7 ,Male,9 13 2006,valerie selkirk,709 delta downs Drive Cary,9192346148,9192346148,selkirkg23@aol.com,YM,1,No,Spring
Zachary,White,U9 ,Male,1 19 2005,Debbie white,201 Elmhaven Way Morrisville,9194610540,9195225747,Debbie.white@sas.com,YM,1,Yes,Spring
Harrison,Wahl,U9 ,Male,11 18 2004,Jennie Wahl,103 ParkRoyale Lane Cary,919-303-1309,919-668-2118,jenniewahl@gmail.com,YL,1,Yes,Spring
Siddhant,Borkar,U9 ,Male,12 30 2004,Yogesh Borkar,1008 Katie Ln Cary,919-387-1516,,borkary@yahoo.com,YL,1,Yes,Spring
Kaiden,Granko,U9 ,Male,9 1 2004,Bob,143 presidents walk lane Cary,9196232207,,Rgranko@gmail.com,YM,1,Yes,Spring


Ava,Wertz,U7 ,Female,9 27 2006,Kory and Haley,205 Connors Cir. Cary,9194577055,,wertzkory@gmail.com,YM,0,Yes,Spring
Kailey,Okine,U7 ,Female,10 7 2007,Kayj & Brock Okine,2151 Bluff Oak Drive Cary,9104719512,,kayjokine@gmail.com,YL,1,No,Spring
Ariana,Loughlin,U9 ,Female,11 28 2004,Lawrence,105 Littleford LN cary,3103443330,3103443330,lloughlin@drobnycapital.com,YM,1,No,Spring
Ishi,Varshney,U7 ,Female,8 15 2006,Geetika Jain,207 Northlands Drive Cary,9193216163,9198039984,geetikajain@gmail.com,YM,1,No,Spring
Ella,Smith,U7 ,Female,9 5 2006,Renata Smith,401 Willingham Rd Morrisville,9192687600,,rsmith80131@yahoo.com,YM,1,No,Spring
Ella,Smith,U7 ,Female,9 5 2006,Renata Smith,401 Willingham Rd Morrisville,9192687600,,rsmith80131@yahoo.com,YM,1,No,Spring
Addison,Canady,U7 ,Female,9 5 2006,Erika & Randy Canady,102 Guymon Court Morrisville,9195237764,,erika.canady@gmail.com,YS,1,No,Spring
Elyssa,Falick,U9 ,Female,1 7 2005,Scott Falick,720 Rolling Spring Drive cary,2014540530,,scott.falick@gmail.com,YS,1,No,Spring
Kristi,Kleu,U8 ,Female,5 22 2006,Jon and Kim Kleu,205 Preston Arbor Lane Cary,9194692742,9198800833,kkleu@nc.rr.com,YM,1,No,Spring
Abigail,Hummel,U8 ,Female,3 8 2006,Jim Hummel,125 Glenmore Rd Cary,610-597-9895,,jimphummel@aol.com,YM,1,No,Spring
Mikaela,Hummel,U7 ,Female,4 14 2007,Jim Hummel,125 Glenmore Rd Cary,610-597-9895,,jimphummel@aol.com,YM,1,No,Spring
Anna,McKinstry,U9 ,Female,2 22 2005,Kelly McKinstry,6413 Chapman Court Raleigh,9195710791,9195710791,kellymck@yahoo.com,YM,1,Yes,Spring
Camila,Kern,U7 ,Female,6 18 2007,Consuelo and James,205 Hethridge Lane Cary,8043805723,,justgym@live.com,YM,1,No,Spring
Allison,Marold,U9 ,Female,5 10 2005,Gail,111 Barriedale Circle Cary,9193630095,9193021620,gailfer123@yahoo.com,YL,1,Yes,Spring
Katie,Komorner,U8 ,Female,9 16 2005,Holly Komorner,403 Cedar Wynd Drive Apex,919-539-0649,,hollykomorner@yahoo.com,YL,1,Yes,Spring
Claire,Chadwick,U8 ,Female,2 18 2006,Andrew and Kelly,1800 Park Drive Raleigh,832-7280,601-7668,chadwick_kelly@yahoo.com,YS,0,No,Spring
