Geoffrey^Francis^U7 ^Male^6 5 2007^George^3717 White Chapel Way Raleigh^919-870-1118^919-647-8322^George.K.Francis@dhhs.nc.gov^YM^1^No^Spring
Adam^Saib^U8 ^Male^9 19 2005^Tina and Bilal Saib^4029 Oakthorne Way Raleigh^919-601-3551^^tinasaib@gmail.com^YL^1^No^Spring
Jarrett "Gray"^Zimmerman^U9 ^Male^3 1 2005^Jarrett Zimmerman^5207 SHAMROCK DR RALEIGH^9193087623^9193087623^jarrett.zimmerman@gmail.com^YL^1^No^Spring
Cayden^Kroll^U7 ^Male^1 30 2007^Bill Kroll^2812 Kissing Court Raleigh^9194517286^^wa2hyper@gmail.com^YS^1^No^Spring
Dillon^Kroll^U8 ^Male^4 27 2006^Bill Kroll^2812 Kissing Court Raleigh^9194517286^^wa2hyper@gmail.com^YM^1^Yes^Spring
Joshua^Horwitz^U9 ^Male^10 12 2004^Leslie and Michael Horwitz^12400 Brandon Hall Dr. Raleigh^919-274-3970^^Lnh0301@aol.com^YL^1^Yes^Spring
Ryan^Horwitz^U9 ^Male^10 12 2004^Leslie & Michael Horwitz^12400 Brandon Hall Dr. Raleigh^919-274-3970^^Lnh0301@aol.com^YL^1^No^Spring
Carson^Crider^U7 ^Male^7 29 2007^Kelly Crider^828 Clatter Avenue Wake Forest^919-556-3153^^ktcrider@gmail.com^YS^0^No^Spring
Liam^Lasher^U9 ^Male^4 24 2005^Joy Gillespie^2505 Hiking Trail Raleigh^9194130023^^joygille77@yahoo.com^YL^0^Yes^Spring
