Connor^Fields^U9 ^Male^11 20 2000^Rose and Shawn^4704 Twinwood Court Raleigh^676 8375^926 3112^rosefields@bellsouth.net^YL^1^No^Summer
Carlos^Petzold^U9 ^Male^7 7 2001^Martha and Mark Petzold^7414 Brandon Allen Ave Raleigh^9196737731^^mlpetzold@fortean.com^YS^1^No^Summer
Justin^Melchiorre^U7 ^Male^10 14 2002^Wendy Melchiorre^2300 Narrawood St Raleigh^570-3233^239-0915^bunzmail@hotmail.com^YL^0^No^Fall
Jackson^Salter^U9 ^Male^9 19 2000^Patricia Salter^5941 Clarks Fork Dr Raleigh^919-875-2167^919-998-7868^psalter@nc.rr.com^YL^1^No^Winter1, Winter2
Sam^Vlahoplus^U8 ^Male^2 27 2002^Chris and Mary Vlahoplus^2536 Wake Dr Raleigh^781-0263^781-4191^chrisvjr@aol.com^YM^0^No^Fall
Robert^Hollis^U7 ^Male^6 6 2003^Jim Hollis^14112 Allison Drive Raleigh^9198014111^9198014111^hollis.jim@gmail.com^YM^2^No^Fall
Connor^Dail^U7 ^Male^9 11 2002^rick dail^4909 brookhaven dr raleigh^844-3355^413-4847^rickdail@nc.rr.com^YS^1^No^Fall, Winter1, Winter2, Spring
Joseph^Simpson^U7 ^Male^4 12 2003^Terry & Shirley Simpson^1012 Golden Star Way Wake Forest^919 453 0316^^ssimpson416@nc.r.com^YM^1^No^Fall
Lucas^Mulik^U7 ^Male^5 29 2003^Trish^6300 Battleview Drive Raleigh^803-4351^^tmulik_97@yahoo.com^YM^1^No^Winter1
Nixon^Sykes^U7 ^Male^6 5 2003^Kurt and Shannon^420 Longbourn Dr Wake Forest^9195692111^9198686464^kurtsykes@earthlink.net^YM^1^No^Winter1
Nathan^Wolins^U8 ^Male^7 23 2002^Barry , Michelle^7224 Sparhawk Rd Wake Forest^919-435-6955^^pubwol@me.com^YL^0^No^Winter1, Winter2, Spring
Robert^Hinkle^U7 ^Male^1 22 2003^Jamison Hinkle^1316 Diehl Street Raleigh^(919) 835-9682^(919) 821-6686^jhinkle@smithlaw.com^YM^1^No^Winter1
Adam^Schaller^U8 ^Male^11 1 2001^Adrian Schaller^401 Longbourn Drive Wake Forest^919-562-8458^919-427-1400^aschaller@advancedenergy.org^YM^1^No^Winter1
Donavon^Stell^U9 ^Male^3 23 2001^Don Stell^1727 NC 98 Hwy W Louisburg^9194950890^9193803137^crosshare@gmail.com^YL^2^No^Winter1, Winter2
Will^Lohr^U7 ^Male^6 21 2003^Jamie Lohr^10208 River Bank Dr. Raleigh^9198446585^9198100086^jlohr@bellsouth.net^YS^1^No^Winter1
Robert^Hollis^U7 ^Male^6 6 2003^Jim & Kelly^14112 Allison Drive Raleigh^9198014111^9198014111^hollis.jim@gmail.com^YM^1^Yes^Winter1, Winter2
Nicolas^Pucci^U7 ^Male^4 15 2003^Paul and Anastasia^109 Vista Rose Ct Cary^(919) 465-5786^(919) 474-0771^apucci@ccesearch.com^YS^1^No^Winter1
brett^poirier^U8 ^Male^12 21 2001^tim  kristin^1106 edenburgh keep dr knightdale^9192669602^9192669602^kpoirier@nc.rr.com^YL^1^No^Winter1
David^White^U8 ^Male^11 3 2001^Carrington White^8609 carriage tour ln raleigh^9198449206^9196322922^carringtonww@yahoo.com^YM^2^No^Winter1
Jackson^Bunte^U9 ^Male^4 5 2001^Bill and Laura^5220 Bartons Enclave Lane Raleigh^676-3782^541-0889^bunte.laura@epa.gov^YL^1^No^Winter2
ethan^ritter^U9 ^Male^11 18 2000^shannon reed^2221 raven rd unit 107 raleigh^9198476139^7034776131^irelandblueyes@gmail.com^YL^1^No^Winter2
Luke^Bedard^U7 ^Male^7 23 2003^Teresa Bedard^7009 Millstone Ridge Ct Raleigh^919 518-2820^919 518-2820^tbedard@nc.rr.com^YS^0^No^Winter2, Spring
Mattias^Perez^U9 ^Male^6 18 2001^Daniela Perez^10820 Bedfordtown Dr. Raleigh^919-327-1391^^dperez13@nc.rr.com^YL^1^No^Winter2
Asher^Wexler^U8 ^Male^5 13 2002^Seth and Anna Wexler^2200 Weybridge Drive Raleigh^919-713-0266^919-612-1341^sethwexler@hotmail.com^YM^1^No^Winter2
Aaron^Brackett^U7 ^Male^10 10 2003^Brett and Dane Brackett^12320 Penrose Trail Raleigh^9195548886^9192155979^bbrackett@capitalbank-nc.com^YS^2^No^Winter2, Spring
Nathan^Morales^U9 ^Male^11 19 2000^Nicole and Eric Morales^108 Selsey Dr. Wake Forest^5620579^6022937^nicolebeth@nc.rr.com^YL^1^No^Winter2
david^white^U8 ^Male^11 3 2001^carrington white^8609 carriage tour ln raleigh^9198449206^9198180966^carringtonww@yahoo.com^YM^1^Yes^Winter2
numa^mora^U9 ^Male^9 19 2000^olga becerra^3407 archdale drive raleigh^919-9461878^^olgaluciabecerra2005@hotmail.com^YL^1^No^Winter2
andres^mora^U7 ^Male^6 9 2003^olga becerra^3407 archdale drive raleigh^919-9461878^^olgaluciabecerra2005@hotmail.com^YM^1^No^Winter2
Robert^Hinkle^U7 ^Male^1 22 2003^Jamison Hinkle^1316 Diehl Street Raleigh^919-835-9682^919-821-6686^jhinkle@smithlaw.com^YL^1^Yes^Winter2
Mattias^Perez^U9 ^Male^6 18 2001^Daniela Perez^10820 Bedfordtown Dr. Raleigh^919-327-1391^^dperez13@nc.rr.com^YL^1^No^Winter2
David^Ogar^U7 ^Male^8 15 2002^Ken & Rosalie Ogar^5333 Indigo Moon Way Raleigh^919 845 3449^919-266-8720^kogar@att.net^YM^1^Yes^Winter2, Spring
Harrison^Cashion^U9 ^Male^12 6 2000^Misha Cashion^3029 Gentle Breezes Lane Raleigh^325-9273^760-7699^wcashion@nc.rr.com^AS^0^No^Winter2
Austin^Andersen^U9 ^Male^7 7 2001^Beth and Luke^2320 Knoll Ridge Lane Wake Forest^919-556-9434^919-491-3716^bethannandersen@yahoo.com^YM^1^No^Winter2
William^Lohr^U7 ^Male^6 21 2003^Jamie Lohr^10208 River Bank Dr. raleigh^9198446585^9198100086^jlohr@bellsouth.net^YS^1^Yes^Winter2
Pierce^Bombard^U8 ^Male^7 24 2002^Radi and Tate Bombard^2812 Peachleaf Street Raleigh^9195544037^5029318804^miyob@msn.com^YM^1^No^Spring
Christian^Carter^U9 ^Male^6 19 2001^Terri Carter^212 Austin View Blvd Wake Forest^919-622-4103^919-622-4103^thc.cc@sbcglobal.net^YL^1^No^Spring
Aiden^Badulis^U7 ^Male^4 2 2003^Allan and Jocelyn Badulis^2405 Treen St Raleigh^919-449-0104^^abadulis@gmail.com^YS^1^No^Spring
William^Lohr^U7 ^Male^6 21 2003^Jamie Lohr^10208 River Bank Dr. raleigh^9198446585^9198100086^jlohr@bellsouth.net^YS^1^Yes^Spring
Collin^Sayers^U7 ^Male^12 5 2003^Ron & Kim Sayers^1807 Bloomsbury Road Greenville^2528484256^^ronsayers@yahoo.com^YM^1^No^Spring
BRANDON^GOLDBERG^U8 ^Male^12 2 2002^BRIAN GOLDBERG^12425 Browder St Raleigh^9195629018^9198619098^bgold@gloverprinting.com^YM^1^No^Fall, Winter1, Winter2, Spring
Will^DeLong^U9 ^Male^6 3 2002^Robin DeLong^12228 The Gates Dr Raleigh^919 341 0894^919 720 2207^Ro1eighteen@aol.com^YM^1^No^Summer
Ryan^Buck^U9 ^Male^3 1 2002^Dave & Joanne Buck^10504 chandler way Raleigh^919-792-0492^^dbuckjr@gmail.com^YL^1^No^Summer
Avery^Lafon^U9 ^Male^6 21 2002^Chad & Susan^12105 Ballybrook Ct Raleigh^919-845-7335^^chadsusan@msn.com^YL^1^No^Summer
Benjamin^Hazel^U9 ^Male^11 18 2001^Geoff Hazel^1005 Old Mill Creek Court Raleigh^919-518-8290^919-621-9345^geoff.g.hazel@gmail.com^YL^0^Yes^Summer
Justus^Purnell^U8 ^Male^3 3 2003^Milton & Charlotte Purnell^6524 Willowlawn Drive Wake Forest^919-624-0214^919-554-8453^alceniapurnell@yahoo.com^YL^1^No^Summer
Liam^Daugherty^U8 ^Male^11 29 2002^Kim and Tim Daugherty^824 Stroud Circle Wake Forest^453-0244^264-7486^ktdaugherty@yahoo.com^YL^1^No^Summer
Lucas^Rorick^U8 ^Male^10 20 2002^Chuck^929 Richland Ridge Dr. Wake Forest^919-556-8431^412-526-3826^chuckrorick@yahoo.com^YS^1^No^Summer
Miles^Pier^U7 ^Male^7 7 2004^Carrie and Steven^4100 Forgotten Pond Ave Wake Forest^9195561369^9192648154^carrie.pier@merck.com^YS^1^No^Fall
Andrew^Gould^U8 ^Male^1 23 2003^Kelly Gould^10601 Firwood Lane Raleigh^8709497^^sgould@mindspring.com^YL^1^No^Fall
James^Zenker^U9 ^Male^3 22 2002^Matt and Susan^20 Scotts Pine Circle Wake Forest^919-556-0948^919-239-7190^zenkermj94@hotmail.com^YL^0^No^Winter1, Winter2, Spring
Mateo^Espinoza^U9 ^Male^11 13 2001^Jamie & Kevin Espinoza^6413 Mountain Oaks Way Wake Forest^9194351828^4049069687^jmeespi4@yahoo.com^YM^1^No^Fall
Heiden^Kristoffersen^U8 ^Male^9 25 2002^Johan and Kari Kristoffersen^4104 steel canyon way wake forest^9195293028^4802362687^kek@nc.rr.com^YM^1^No^Fall
Dylan^Frank^U9 ^Male^8 25 2001^Jack and Carrie Frank^2705 Laurel field Circle wake Forest^562-7310^368-6864^carrieafrank@aol.com^YM^1^No^Fall
Landon^Frank^U7 ^Male^8 1 2003^Jack and Carrie Frank^2705 Laurel Field Circle Wake Forest^562-7310^368-6864^carrieafrank@aol.com^YM^1^No^Fall
Andrew^Turpin^U7 ^Male^8 30 2003^Andrea^2221 Kira Lane Raleigh^9193024876^9193024876^aturpy@gmail.com^YM^1^No^Fall, Winter1, Winter2, Spring
Lucas^Rorick^U8 ^Male^10 20 2002^Chuck Rorick^929 Richland Ridge Dr. Wake Forest^919-556-8431^412-556-8431^chuckrorick@yahoo.com^YS^1^Yes^Fall
Barrett^Bumgarner^U7 ^Male^6 26 2004^Stephanie Bumgarner^2222 Dunlin Lane Raleigh^919-539-2377^919-539-2377^sbumgarner@ctc.net^YM^1^No^Fall
Liam^Daugherty^U8 ^Male^11 29 2002^Tim and Kim Daugherty^824 Stroud Circle Wake Forest^453-0244^264-7486^ktdaugherty@yahoo.com^YL^1^No^Winter1
benjamin^vitale^U9 ^Male^4 5 2002^jack vitale^101 tibury ct raleigh^919-866-1122^919-872-2037^jvitale@ampf.com^YL^0^No^Fall
Brett^Hays^U7 ^Male^6 22 2004^Chris and Allison Hays^1140 Trentini Ave. Wake Forest^919-453-0142^919-740-3063^als2kids@earthlink.net^YM^1^No^Winter1, Winter2
Michael^Worley^U8 ^Male^1 5 2003^Todd Worley^6231 Lookout Loop Raleigh^9193894389^^mtworley@wcpss.net^YM^1^No^Fall
Matt^Kozacko^U9 ^Male^5 13 2002^Mark Kozacko^2912 Cone Manor Lane Raleigh^847-2144^280-9671^mfk1234@yahoo.com^YL^1^No^Winter1
Benjamin^Kozacko^U8 ^Male^4 25 2003^Mark Kozacko^2912 Cone Manor Lane Raleigh^847-2144^280-9671^mfk1234@yahoo.com^YL^1^No^Winter1
benjamin^vitale^U9 ^Male^4 5 2002^jack vitale^101 tibury ct raleigh^866-1122^872-2037^jbvlmv@yahoo.com^YL^1^No^Winter1
Owen^Malone^U8 ^Male^11 9 2002^Robb & Tessy Malone^9025 Sundance St Wake Forest^919.528.6083^919.218.1113^robbmalone@hotmail.com^YM^1^Yes^Winter1
