Maximilian^Emenheiser^U11^Male^9 13 2002^Karin and Scott^204 Cedar Wynd Dr. Apex^919-363-6477^919-454-6357^karin@emenheiser.com^YL^1^No^Spring
erkj^dkfj^U10^Male^1 1 2004^dkfj^dkjfd dkjf^dkfjd^dkjf^dkjf@gmail.com^YL^0^Yes^Spring
Aakash^Bhardwaj^U11^Male^3 6 2003^Santosh kumar^206 chiselhurst way Cary^9193426611^9199305881^Rashmisantosh.bdj@gmail.com^YM^1^No^Spring
leo^cheng^U11^Male^3 6 2003^fang liu^102 laurel wreath ln Cary^9194607934^^f_liufang@hotmail.com^YL^1^Yes^Spring
Nickolas^Kleu^U11^Male^3 18 2003^Jon and Kim Kleu^205 Preston Arbor Lane Cary^9194692742^^kkleu@nc.rr.com^YL^0^No^Spring
Ariel^Turcios^U11^Male^3 10 2003^Alfonso&Sandra Turcios^2504 torbay ct Rleigh^919 609  4519^919 872 5360^aturcious@nc.rr.com^YL^1^Yes^Spring
Moore^Halfon^U11^Male^6 17 2003^Dalit Halfon^1028 upchurch farml lane Cary^9193034964^9199249203^dalit.halfon@gmail.com^YL^1^Yes^Spring
Davis^Hunter^U11^Male^5 18 2003^Mike and Mandy^7032 Talton Ridge Drive Cary^9196503721^9192579295^mandmhunter@aol.com^YM^1^No^Spring
