Jon^Grabowski^U9 ^Male^3 21 2005^Shannon Grabowski^418 Lakeshore Lane Chapel Hill^9199335104^9195935013^shannongrabowski@yahoo.com^YL^2^No^Winter2
Graham^Woodward^U9 ^Male^5 31 2005^Julia Woodward^5400 Fire Pink Way Raleigh^919.870.5465^919.345.0480^julia.woodward@duke.edu^YL^0^Yes^Spring
Benjamin^Afshari^U8 ^Male^11 22 2005^Hamid and Leila^213 Kurtner Ct. MORRISVILLE^919-321-8686^919-720-1790^db_afshari@yahoo.com^YM^0^No^Spring
Joseph^Herr^U8 ^Male^9 24 2005^David^600 Laconia Woods Pl Cary^919-349-3451^919-254-7981^dherr@nc.rr.com^YL^1^No^Spring
Siddhant^Borkar^U9 ^Male^12 30 2004^Yogesh Borkar^1008 Katie Ln Cary^9193871516^9199946511^borkary@yahoo.com^YL^1^No^Spring
Logan^Benna^U8 ^Male^1 13 2006^Matt & Lisa^5328 Bent Leaf Drive Raleigh^9199771711^2155898715^bennafam@gmail.com^YL^1^No^Spring
Carson^Pollock^U7 ^Male^2 24 2007^Kathryn Lewellen^524 Buxton Grant Dr Cary^919 270-4545^^lewellenk@yahoo.com^YM^1^No^Spring
Ryan^Cawley^U7 ^Male^1 13 2006^Kathy & TJ Cawley^103 Trellingwood Drive Morrisville^919-539-3687^919-539-9683^kathy.cawley@verizon.com^YM^1^Yes^Spring
Paxton^de Tenley^U7 ^Male^3 16 2007^Dave & Becky^8018 Wade Green Place Cary^9194500069^9194500069^detenley@hotmail.com^YL^1^No^Spring
Bennett^de Tenley^U8 ^Male^11 1 2005^Dave & Becky^8018 Wade Green Place Cary^9194500069^9194500069^detenley@hotmail.com^YL^1^No^Spring
Aariv^Bhardwaj^U7 ^Male^12 17 2007^Santosh^206 chiselhurst way Cary^9193426611^^Rashmisantosh.bdj@gmail.com^YM^1^No^Spring
Noah^Fitzsimons^U7 ^Male^3 24 2007^Josh Fitzsimons^4310 Russling leaf lane Raleigh^919-787-0134^919-604-6398^joshfitzsimons@yahoo.com^YL^1^No^Spring
Eric^Ye^U8 ^Male^1 27 2006^qing ye^2112 addenbrock drive morrisville^9192083852^9192083852^softmud@gmail.com^YL^0^No^Spring
Bennett^Lee^U8 ^Male^12 21 2005^Joe Lee^815 Water Hickory Drive Cary^919.800.1591^919.881.7001^joe.lee2@wellsfargo.com^YM^1^No^Spring
Carson^Grizer^U9 ^Male^11 1 2004^Jeff and Kerri Grizer^310 Marble Glow Ct Cary^919-342-7015^^Kgrizer@hotmail.com^YL^1^Yes^Spring
Christopher^Kelly^U8 ^Male^12 26 2005^Hongyu Wang^614 Ives Ct Chapel Hill^9194108107^^wanghongyu@ymail.com^YM^1^No^Spring
Kamran^Hau^U9 ^Male^11 23 2004^Emiko Takahara-Hau^1538 Sterling Green Dr. Morrisville^551-580-9622^^mountfuji2@yahoo.com^YL^1^No^Spring
Tyler^selkirk^U7 ^Male^9 13 2006^valerie selkirk^709 delta downs Drive Cary^9192346148^9192346148^selkirkg23@aol.com^YM^1^No^Spring
Zachary^White^U9 ^Male^1 19 2005^Debbie white^201 Elmhaven Way Morrisville^9194610540^9195225747^Debbie.white@sas.com^YM^1^Yes^Spring
Harrison^Wahl^U9 ^Male^11 18 2004^Jennie Wahl^103 ParkRoyale Lane Cary^919-303-1309^919-668-2118^jenniewahl@gmail.com^YL^1^Yes^Spring
Siddhant^Borkar^U9 ^Male^12 30 2004^Yogesh Borkar^1008 Katie Ln Cary^919-387-1516^^borkary@yahoo.com^YL^1^Yes^Spring
Kaiden^Granko^U9 ^Male^9 1 2004^Bob^143 presidents walk lane Cary^9196232207^^Rgranko@gmail.com^YM^1^Yes^Spring
