First Name, Last Name, Age, Gender, B-day, Parents Name, Address, Home Phone, Cell Phone, E-mail, Session


Cate,Brewer,U14,Female,2 17 2000,Barrett Brewer,1911 Victoria Road Raleigh,919-781-0495,919-612-1848,919-612-1708,cbbrewer@nc.rr.com,Summer  
Justin,Armel,U14,Male,12 21 1999,John and Maria,11106 Empire Lakes Drive Raleigh,919-293-1607,,919-602-4762,Karmel@nc.rr.com,Summer  
