Cate^Brewer^U14^Female^2 17 2000^Barrett Brewer^1911 Victoria Road Raleigh^919-781-0495^919-612-1848^919-612-1708^cbbrewer@nc.rr.com^Summer, 
Justin^Armel^U14^Male^12 21 1999^John and Maria^11106 Empire Lakes Drive Raleigh^919-293-1607^^919-602-4762^Karmel@nc.rr.com^Summer, 
Sarah^Reynolds^U15^Female^9 26 1998^Pat Reynolds^116 Scottingham Lane Morrisville^919-469-3363^919-434-3511^919-434-4406^sandirey@nc.rr.com^Summer, Winter1, Winter2, 
Martin^Martinez^U14^Male^10 8 1999^Gloria & Manuel Martinez^1410 Buffaloe Rd Garner^9197711883^9194278040^9193694307^manuelmtz2@gmail.com^Winter1, Winter2, 
Alexis^Ayers^U14^Female^1 24 2000^Robert & Crystal Ayers^649 Millstone Dr Clayton^9195852991^(919) 801-1649^(919) 801-1725^roberts4girls@aim.com^Winter1, Winter2, 
Matthew^Silver^U14^Male^11 30 1999^Doreen silver^9600 koupela drive Raleigh^919 847-8349^919 270-1327^919 280-1823^Msilver2@nc.rr.com^Winter1, Winter2, 
Martin^Martinez^U14^Male^10 8 1999^Gloria & Manuel Martinez^1410 Buffaloe Rd Garner^9194278040^9194278040^9193694307^manuelmtz2@gmail.com^Winter1, Winter2, 
Conner^Kimball^U14^Male^6 27 2000^Melissa Suarez^9219 Fair Oaks Rd Chapel Hill^9192591532^^9192591532^futbolmama@gmail.com^Winter1, 
Martin^Martinez^U14^Male^10 8 1999^Gloria & Manuel Martinez^1410 Buffaloe Rd Garner^9197711883^9194278040^9193694307^manuelmtz2@gmail.com^Winter1, Winter2, 
Elizabeth^Fleming^U14^Female^10 7 1999^Joe & Louise^325 Village Loop Drive Apex^919 363-6447^919 272-2472^919 272-7174^jdfleming@bellsouth.net^Winter2, 
