Allie^Dion^U8 ^Female^12 17 2001^Kathy and Paul Dion^8421 Montavista Lane Wake Forest^919-562-7154^919-272-6517^kdionrn@yahoo.com^YM^1^No^Summer
Ben^Hazel^U8 ^Female^11 18 2001^Geoff^1005 Old Mill Creek Court Raleigh^919-518-8290^919-827-0088^ghazel1@nc.rr.com^YM^1^No^Summer
Karen^Test^U7 ^Female^8 1 2002^karen^my own street morrisville^1111111^1111111^staff@nextlevelacademy.com^YL^1^No^Summer
Tori^Hansen^U9 ^Female^1 14 2001^Dane Hansen^3109 Hummer Way Raleigh^919 341-7524^919-522-4165^huskerhansen92@yahoo.com^YM^1^No^Summer
Madeline^Moran^U9 ^Female^6 25 2000^Marcia^8693 Barrett Ridge Drive Wake Forest^554-3961^^morandesigns@embarqmail.com^YL^1^No^Summer
Meredith^Warrick^U7 ^Female^12 10 2002^Todd and Christy Warrick^5257 Mill Dam Road Wake Forest^919-554-4432^919-971-9065^chwarrick@nc.rr.com^YM^1^No^Fall
Ariana^Kunce^U8 ^Female^2 8 2002^Sara and Chris^1524 Marshall Farm St Wake Forest^570-3018^570-3018^skunce@nc.rr.com^YM^1^No^Winter1
Allie^Dion^U8 ^Female^12 17 2001^Kathy and Paul Dion^8421 Montavista Lane Wake Forest^919-562-7154^919-272-6517^kdionrn@yahoo.com^YM^0^Yes^Fall
Brooke^Finnessy^U9 ^Female^12 15 2000^Anne and Mike^2209 Weybridge Drive Raleigh^9199548056^^anne.finnessy@yahoo.com^YL^1^No^Winter1
hannah^kaplan^U7 ^Female^8 25 2002^julie and david kaplan^1704 Southwell Ct raleigh^9198705196^9199490642^dckapmd@aol.com^YL^0^No^Winter1
Chandler^Lilly^U9 ^Female^9 17 2000^SuSu Lilly^3030 Randolph Drive Raleigh^919-787-8353^919-787-8353^susulilly@nc.rr.com^YL^1^No^Winter1
Sara Hanna^Fortier^U9 ^Female^3 23 2001^Julia & Mark Fortier^3505 Tennyson Place Raleigh^919-782-9593^919-218-2368^jfortier@mindspring.com^YM^1^No^Winter1
Abigail^Kopp^U8 ^Female^5 5 2002^Lynn Kopp^8413 Montavista Ln Wake Forest^919 761 8177^919 274 8899^lynn_susan_kopp@hotmail.com^YM^1^No^Winter1
Katherine^Stiles^U7 ^Female^4 19 2003^Laura and Joseph Stiles^3312 Serendipity Dr Raleigh^919-752-0194^919-961-4631^lms@houseofstiles.net^YS^1^No^Winter1
Tia^Clark^U9 ^Female^2 8 2000^Louis & Teri Clark^3913 Ardleigh Court Raleigh^919-266-7581^Teri 653-5738^tericlark.clark@att.net^YL^1^No^Winter1
Lily^Peden^U8 ^Female^1 27 2001^Stacy and James^2405 Basil Drive Raleigh^845-9212^710-9940^jamesandstacy peden@earthlink.net^YL^1^Yes^Winter1
Meredith^Warrick^U7 ^Female^12 10 2002^Todd and Christy Warrick^5257 Mill Dam Road Wake Forest^919-554-4432^919-971-9065^chwarrick@nc.rr.com^YM^0^Yes^Winter1
Olivia^Neal^U7 ^Female^9 11 2002^Dana & Kawi Neal^5520 Townsend Warbler Ct. Wake Forest^919 223 9023^919 802 5421^danakawi.neal@gmail.com^YM^1^No^Winter1
Melissa^Schroder^U8 ^Female^9 3 2001^Elisabeth and Alex Schroder^9105 Reedham Oaks Court Raleigh^919-845-2419^^eschroder@nc.rr.com^YL^0^Yes^Winter1
Hayleigh^Pack^U9 ^Female^8 14 2000^Jim^ Morning Forest Drive Raleigh^919-720-4417^919-279-5551^jpack15@nc.rr.com^YL^1^No^Winter1, Winter2
Reagan^Cochrane^U8 ^Female^6 21 2002^Amanda Cochrane^9001 Annonhill Street Wake Forest^919-761-8306^919-247-6269^amandaac3@aol.com^YM^1^No^Winter1
Kathleen^Cochrane^U8 ^Female^6 21 2002^Amanda Cochrane^9001 Annonhill Street Wake Forest^919 761-8306^919-247-6269^amandaac3@aol.com^YM^1^No^Winter1
Nicole^Kappaz^U8 ^Female^10 19 2001^Claudine Kappaz^3322 Canes Way Raleigh^435-6085^623-6850^kappazfamily@nc.rr.com^YM^1^No^Winter1
Hannah^Sewell^U9 ^Female^9 12 2000^Martha and Bill Sewell^302 Marlowe Road Raleigh^919-420-0085^919=420-1781^msewell@kilpatrickstockton.com^YL^1^No^Winter1
Aubry^Howell^U8 ^Female^3 2 2002^Abbie Howell^1748 Kingston Heath Way Raleigh^919-255-9818^919-876-0739^ahowell@nc.rr.com^YS^1^No^Winter1
Natalie^Bedard^U9 ^Female^6 19 2001^Teresa Bedard^7009 Millstone Ridge Ct Raleigh^919 518-2820^919 518-2820^tbedard@nc.rr.com^YM^0^No^Winter2, Spring
Brooke^Finnessy^U9 ^Female^12 15 2000^Anne and Mike^2209 Weybridge Drive Raleigh^919-954-8056^919-954-8159^anne.finnessy@yahoo.com^YL^1^Yes^Winter2
Reilyn^Gaglione^U9 ^Female^8 21 2000^Beth / Paul Gaglione^216 Rosenberry Hills Dr Cary^919-601=7362^919-601-7362^beth@artistichairdesigners.com^YM^1^No^Winter2
Hailey^Stone^U9 ^Female^3 8 2001^John Stone^12418 Pawleys Mill Circle Raleigh^919-539-7577^919-539-7577^renogrp@sprint.blackberry.net^YM^1^No^Winter2, Spring
Katherine^Stiles^U7 ^Female^4 19 2003^Laura and Joe^3312 Serendipity Dr Raleigh^919-752-0194^919-961-4631^lms@houseofstiles.net^YS^0^Yes^Winter2
Alexis^Duran^U7 ^Female^10 12 2002^Dean Duran^3504 Serendipity Dr. Raleigh^919-217-7895^919-654-6108^dduran_2175@hotmail.com^YS^1^No^Winter2
Elaine^Ortiz^U8 ^Female^1 24 2002^Dan & Barb Ortiz^1421 Heritage Club Avenue Wake Forest^919.453.0109^919.523.8071^Barbara.Ortiz@earthlink.net^YM^1^No^Winter2
Abby^Kopp^U8 ^Female^5 5 2002^Lynn^8413 Montavist Ln Wake Forest^919.761.8177^919.274.2822^lynn_susan_kopp@hotmail.com^YM^1^No^Winter2
Lily^Peden^U9 ^Female^1 27 2001^James and Stacy^2405 Basil Dr. Raleigh^845-9212^710-9940^jamesandstacypeden@earthlink.net^YL^0^Yes^Winter2
Teresa^Hupp^U8 ^Female^9 12 2001^Daniel Hupp^9305 Glamis Circle Wake Forest^453 1640^426 1009^daniel.hupp@yahoo.com^YL^1^No^Spring
Katie^Sollom^U8 ^Female^9 26 2001^Bob & Deb^6543 Grassy Knoll Ln Raleigh^919-728-4191^919-671-9111^dsollom@nc.rr.com^YM^1^No^Spring
Elaine^Ortiz^U8 ^Female^1 24 2002^Dan & Barb Ortiz^1421 Heritage Club Avenue Wake Forest^919.453.0109^919.523.8071^Barbara.Ortiz@earthlink.net^YL^0^Yes^Spring
Alexis^Duran^U7 ^Female^10 12 2002^Dean & Eunice Duran^3504 Serendipity Dr. Raleigh^919-217-7895^919-654-6108^dduran_2175@hotmail.com^YS^1^Yes^Spring
Ashlyn^Smith^U8 ^Female^11 28 2001^Virginia & Darin Smith^921 Hosta Valley Ct Wake Forest^9194350427^9198891555^domestic_engnr@nc.rr.com^YM^1^No^Spring
Corinne^Lipman^U9 ^Female^9 3 2000^Todd & Deborah Lipman^615 Saint Catherines Dr Wake Forest^(919) 569-5560^(301) 401-8018^piratusus@yahoo.com^YM^1^No^Spring
Katie^Dickerson^U8 ^Female^11 23 2001^Michael and Tracy Dickerson^8108 Sandybrook Lane Wake Forest^919-569-0442^919-392-8942^michaelandtracy@earthlink.net^YL^1^No^Spring
Raegan^Meyer^U9 ^Female^11 4 2001^Brian and Melissa Meyer^5116 Arbor Chase Dr Raleigh^9198729842^9193784110^lisahmeyer@hotmail.com^YM^1^No^Summer
Ainsley^Bulmer^U8 ^Female^3 19 2003^Ken and Jodi Bulmer^11605 Chipaway Court Raleigh^4685456^5315334^jodi.bulmer@sas.com^YS^1^No^Summer
Alcenia^Purnell^U9 ^Female^8 17 2001^Milton & Charlotte Purnell^6524 Willowlawn Drive Wake Forest^919-624-0214^919-624-0214^alceniapurnell@yahoo.com^AS^1^No^Summer
Ava^Talerico^U8 ^Female^11 23 2002^Tina and Jamie Talerico^6021 RIVER LANDINGS DRIVE raleigh^919 349-5874^919 349-5874^tinatalerico@yahoo.com^YM^1^No^Summer
Teresa^Hupp^U9 ^Female^9 12 2001^Danny Hupp^9305 Glamis Circle Wake Forest^919 453 1640^919 426 1009^daniel.hupp@yahoo.com^YL^1^Yes^Summer
Shae^Wells^U7 ^Female^5 2 2004^Gina and Jim Wells^6324 Jones Farm Rd. Wake Forest^556-0025^556-4082^jwells1150@nc.rr.com^YM^1^No^Summer
Graycen^Elliott^U8 ^Female^10 3 2002^Craig and Janna Elliott^3127 Coley Road Rocky Mount^252-314-0423^252-314-0423^cj_elliott@embarqmail.com^YS^2^No^Fall
Jillian^Sullivan^U8 ^Female^4 29 2003^David Sullivan^10709 Cheshire Ct Raleigh^919 802 2052^919 802 2052^djsull494@hotmail.com^YS^1^No^Fall
Alyssa^Buck^U7 ^Female^3 4 2004^Dave and Joanne^10504 chandler way raleigh^919-792-0492^^dbuckjr@gmail.com^YM^1^No^Fall
Makayla^Holderby^U9 ^Female^12 4 2001^Amy Holderby^1201 Dunn Creek Crossing Wake Forest^919-210-7838^919 210-7838^upontherock@nc.rr.com^YS^1^No^Fall, Winter1
Alison^Staples^U7 ^Female^3 4 2004^Jim & Aileen^5256 Mill Dam Road Wake Forest^562-1213^435-9461^astaples@wakeforestnc.gov^YS^0^No^Fall
makayla^holderby^U9 ^Female^12 4 2001^sean holderby^1201 dunn Creek  Crossing Wake Forest^919 7619014^919 7619014^aholderby@nc.rr.com^YM^1^No^Fall
Lindsey^Hays^U9 ^Female^5 21 2002^Chris and Allison Hays^1140 Trentini Ave. Wake Forest^919-453-0142^919-740-3063^als2kids@earthlink.net^YM^1^No^Winter1, Winter2
Kelsey^Bjorklund^U9 ^Female^8 27 2001^Angie & Wes Bjorklund^8608 Carlton Oaks Dr Wake Forest^919.764.9040^919.621.5699^bjorklund@nc.rr.com^YL^1^No^Fall
Taylar^Yost^U9 ^Female^1 31 2002^Jodi and Kevin Yost^5270 Little Sandy Drive Raleigh^919-270-9667^^jodiyost@hotmail.com^YL^1^No^Fall
Hannah^francis^U7 ^Female^10 30 2003^Jeff and Karen Francis^2413 Hagney Street raleigh^919.376.9255^919.790.7011^kcfrancis@nc.rr.com^YS^1^No^Fall
carson^browder^U9 ^Female^12 10 2001^david^402 wildwood avenue rocky mount^252-977-6466^252-451-3200^dalbbrowder@gmail.com^YM^1^No^Winter1
Kate^Rucker^U7 ^Female^3 22 2004^Adam & Rebekah Rucker^10301 Hallingdale Ct Raleigh^919-455-3050^919-455-3051^adam.lee.rucker@gmail.com^YS^1^No^Winter1, Winter2, Spring
Meredith^Warrick^U8 ^Female^12 10 2002^Todd and Christy Warrick^5257 Mill Dam Road Wake Forest^554-4432^919-971-9065^chwarrick@nc.rr.com^YL^0^Yes^Winter1
Ella^Karmanos^U8 ^Female^11 6 2002^Christy & Jason^1809 Oatlands Court Wake Forest^570-9268^^christykarmanos@me.com^YM^1^No^Winter1
Carson^Browder^U9 ^Female^12 10 2001^David and Lesley Browder^402 Wildwood Ave Rocky Mount^252-977-6466^252-955-0452^dalbbrowder@gmail.com^YM^1^No^Winter1
